{
"@context": "http://clowder.ncsa.illinois.edu/contexts/extractors.jsonld",
"name": "ncsa.arcgis.treedelin",
"version": "1.0",
"description": "Tree Delineation",
"author": "Smruti Padhy <spadhy@illinois.edu>",
"contributors": [
"Debsunder Dutta <ddutta3@illinois.edu>",
"Wang, Kunxuan S <kswang3@illinois.edu>",
"Jong Lee <jonglee1@illinois.edu>",
"Sandeep Puthanveetil Satheesan <sandeeps@illinois.edu>"
],
"contexts": [ ],
"repository": {
"repType": "git",
"repUrl": "https://opensource.ncsa.illinois.edu/bitbucket/projects/CATS/repos/extractors-bd-cz/"
},
"external_services": [ ],
"dependencies": ["ArcGIS", "arcpy"],
"bibtex": [ ]
}